\relax 
\@writefile{toc}{\contentsline {section}{\numberline {1}Introduction}{1}}
\newlabel{sec:intro}{{1}{1}}
\@writefile{toc}{\contentsline {section}{\numberline {2}The Capacity of the Ambient Backscatter}{1}}
\@writefile{toc}{\contentsline {section}{\numberline {3}Background on the Power-Rate Trade-off in MIMO Systems}{1}}
\@writefile{toc}{\contentsline {section}{\numberline {4}uMIMO Made High-rate}{1}}
\@writefile{toc}{\contentsline {section}{\numberline {5}Communicate Powerlessly at a Long Range}{2}}
\@writefile{toc}{\contentsline {section}{\numberline {6}Implementation}{3}}
\@writefile{toc}{\contentsline {subsection}{\numberline {6.1}uMIMO}{3}}
\@writefile{toc}{\contentsline {subsection}{\numberline {6.2}Analog Correlation Sampling}{3}}
\@writefile{toc}{\contentsline {section}{\numberline {7}Evaluation}{3}}
\@writefile{toc}{\contentsline {subsection}{\numberline {7.1}Line-of-Sight}{3}}
\@writefile{toc}{\contentsline {subsection}{\numberline {7.2}Non-Line-of-Sight}{3}}
\@writefile{toc}{\contentsline {section}{\numberline {8}Proof-of-concept Applications}{3}}
\@writefile{toc}{\contentsline {section}{\numberline {9}Conclusion}{3}}
