\contentsline {section}{Exercise \#1}{3}
\contentsline {subsection}{(a)}{3}
\contentsline {subsection}{(b)}{3}
\contentsline {section}{Prob. II}{3}
\contentsline {subsection}{Prob. II:\nobreakspace {}(a)}{3}
\contentsline {subsection}{Prob. II:\nobreakspace {}(b)}{4}
\contentsline {section}{Prob. III}{4}
