# Fdb version 3
["pdflatex"] 1382092789 "writeup.tex" "writeup.pdf" "writeup" 1382092807
  "/usr/local/texlive/2013/texmf-dist/tex/context/base/supp-pdf.mkii" 1337017135 71627 94eb9990bed73c364d7f53f960cc8c5b ""
  "/usr/local/texlive/2013/texmf-dist/tex/generic/babel-english/english.ldf" 1367878877 6963 2e0cb3d93aa64508bdb0db58ae900d97 ""
  "/usr/local/texlive/2013/texmf-dist/tex/generic/babel/babel.def" 1368743226 42950 b2c89311c96d7b70c24e1365a2fa51ee ""
  "/usr/local/texlive/2013/texmf-dist/tex/generic/babel/babel.sty" 1368743226 12840 2e72e784a90c49d785af067b2056c36d ""
  "/usr/local/texlive/2013/texmf-dist/tex/generic/oberdiek/etexcmds.sty" 1335995445 7612 c47308d923ec19888707b0f1792b326a ""
  "/usr/local/texlive/2013/texmf-dist/tex/generic/oberdiek/ifluatex.sty" 1303254447 7324 11d14f318d865f420e692d4e6c9c18c3 ""
  "/usr/local/texlive/2013/texmf-dist/tex/generic/oberdiek/ifpdf.sty" 1303254447 7140 ece2cc23d9f20e1f53975ac167f42d3e ""
  "/usr/local/texlive/2013/texmf-dist/tex/generic/oberdiek/infwarerr.sty" 1335995445 8253 3bdedc8409aa5d290a2339be6f09af03 ""
  "/usr/local/texlive/2013/texmf-dist/tex/generic/oberdiek/kvdefinekeys.sty" 1335995445 5152 387d9200f396b498d5fd679ae44ed898 ""
  "/usr/local/texlive/2013/texmf-dist/tex/generic/oberdiek/kvsetkeys.sty" 1335995445 14040 8de9f47fabc4ca3bd69b6d795e32751c ""
  "/usr/local/texlive/2013/texmf-dist/tex/generic/oberdiek/ltxcmds.sty" 1335995445 18425 775b341047ce304520cc7c11ca41392e ""
  "/usr/local/texlive/2013/texmf-dist/tex/generic/oberdiek/pdftexcmds.sty" 1335995445 19987 01cb2f3c1d21e5f05711b7fd50b17f2a ""
  "/usr/local/texlive/2013/texmf-dist/tex/latex/amscls/amsthm.sty" 1361575838 13294 f63af559496acbb4ffecc2de353745eb ""
  "/usr/local/texlive/2013/texmf-dist/tex/latex/amsfonts/amsfonts.sty" 1359763108 5949 3f3fd50a8cc94c3d4cbf4fc66cd3df1c ""
  "/usr/local/texlive/2013/texmf-dist/tex/latex/amsfonts/umsa.fd" 1359763108 961 6518c6525a34feb5e8250ffa91731cff ""
  "/usr/local/texlive/2013/texmf-dist/tex/latex/amsfonts/umsb.fd" 1359763108 961 d02606146ba5601b5645f987c92e6193 ""
  "/usr/local/texlive/2013/texmf-dist/tex/latex/amsmath/amsbsy.sty" 1362954379 2412 2d98314dc5be38f455f8890deeb2d091 ""
  "/usr/local/texlive/2013/texmf-dist/tex/latex/amsmath/amsgen.sty" 1362954379 4357 ad30ad08920902fc9b38caf35a3b0496 ""
  "/usr/local/texlive/2013/texmf-dist/tex/latex/amsmath/amsmath.sty" 1362954379 79178 b2e326c351e876df0e5e23df2e02441b ""
  "/usr/local/texlive/2013/texmf-dist/tex/latex/amsmath/amsopn.sty" 1362954379 4082 502152465aedb8f6a3c4b0b7c0fa8ae5 ""
  "/usr/local/texlive/2013/texmf-dist/tex/latex/amsmath/amstext.sty" 1362954379 2637 846ebe982d3549c7ede7ce135456f54a ""
  "/usr/local/texlive/2013/texmf-dist/tex/latex/base/fontenc.sty" 1254151887 4435 b97063eb2f20be499e7725926af85c55 ""
  "/usr/local/texlive/2013/texmf-dist/tex/latex/base/t1cmss.fd" 1254151887 2261 3e7de62c35c129b538a1e8a251fba8f8 ""
  "/usr/local/texlive/2013/texmf-dist/tex/latex/base/t1enc.def" 1254151887 9172 67c33288b50eb57eab968f345e8befb0 ""
  "/usr/local/texlive/2013/texmf-dist/tex/latex/base/textcomp.sty" 1312312491 15509 394096bec6a284398e0b3ead6d33977e ""
  "/usr/local/texlive/2013/texmf-dist/tex/latex/base/ts1cmr.fd" 1254151887 2070 a9b43c0e3cee84bb3927d80d70ee10ce ""
  "/usr/local/texlive/2013/texmf-dist/tex/latex/base/ts1enc.def" 1254151887 7630 8f51e48866ebfd08b8299888bbe81549 ""
  "/usr/local/texlive/2013/texmf-dist/tex/latex/fancyhdr/fancyhdr.sty" 1160175134 20521 e5d13d98d57bd53d4fed3aa61bd29c86 ""
  "/usr/local/texlive/2013/texmf-dist/tex/latex/fourier/fmlfutm.fd" 1137110168 640 e9faa3c895b5b0d2cc1c1f7ae5b1e92b ""
  "/usr/local/texlive/2013/texmf-dist/tex/latex/fourier/fmlfutmi.fd" 1137110168 656 ae28e6211f6ec967acab0e84e89d4157 ""
  "/usr/local/texlive/2013/texmf-dist/tex/latex/fourier/fmsfutm.fd" 1137110168 344 d6ad49184dbd12acf51a3d68a16431aa ""
  "/usr/local/texlive/2013/texmf-dist/tex/latex/fourier/fmxfutm.fd" 1137110168 234 391aead033d3fe052ccf3274bb7741ee ""
  "/usr/local/texlive/2013/texmf-dist/tex/latex/fourier/fourier-orns.sty" 1137110168 1677 589eddc75f98c1b83abe9d1f1007ef8c ""
  "/usr/local/texlive/2013/texmf-dist/tex/latex/fourier/fourier.sty" 1137110168 14587 5ab3db6bde809931d7e61b01babd4b61 ""
  "/usr/local/texlive/2013/texmf-dist/tex/latex/fourier/t1futs.fd" 1137110168 1110 49fc682812e5bf3bf06c16254f321544 ""
  "/usr/local/texlive/2013/texmf-dist/tex/latex/graphics/graphics.sty" 1254151804 14183 42a8fc761b806986eef292369afc2988 ""
  "/usr/local/texlive/2013/texmf-dist/tex/latex/graphics/graphicx.sty" 1156702488 7882 3bd78469d444e8d494e27cfd7ca92719 ""
  "/usr/local/texlive/2013/texmf-dist/tex/latex/graphics/keyval.sty" 1156702488 2266 7054435e4584a41cf53b0a7ca624d0cb ""
  "/usr/local/texlive/2013/texmf-dist/tex/latex/graphics/trig.sty" 1156702488 3153 c50e6bd54d2dd3933fc52bcf369bec4a ""
  "/usr/local/texlive/2013/texmf-dist/tex/latex/koma-script/scrartcl.cls" 1343688052 106474 7f06b40fedbef8c4ed2bde858c785cf3 ""
  "/usr/local/texlive/2013/texmf-dist/tex/latex/koma-script/scrbase.sty" 1343688052 27136 ac42cbaa4ede00fc8c2863056f1dcdb4 ""
  "/usr/local/texlive/2013/texmf-dist/tex/latex/koma-script/scrkbase.sty" 1343688052 12006 1c57cd5bc6062f154af1261d4de745ca ""
  "/usr/local/texlive/2013/texmf-dist/tex/latex/koma-script/scrlfile.sty" 1343488661 12492 c400f596684b3ca2a983df662121f8a7 ""
  "/usr/local/texlive/2013/texmf-dist/tex/latex/koma-script/scrsize11pt.clo" 1343688052 6103 4e753d96e6e3b720309972c59b8bebc7 ""
  "/usr/local/texlive/2013/texmf-dist/tex/latex/koma-script/tocbasic.sty" 1337209970 22069 4c40ce7c06c12a7113018f191a260d53 ""
  "/usr/local/texlive/2013/texmf-dist/tex/latex/koma-script/typearea.sty" 1343688052 37561 568730de83d69d6834315d4390e3cbc2 ""
  "/usr/local/texlive/2013/texmf-dist/tex/latex/latexconfig/epstopdf-sys.cfg" 1279039959 678 4792914a8f45be57bb98413425e4c7af ""
  "/usr/local/texlive/2013/texmf-dist/tex/latex/latexconfig/graphics.cfg" 1278958963 3563 d35e897cae3b8c6848f6677b73370b54 ""
  "/usr/local/texlive/2013/texmf-dist/tex/latex/lipsum/lipsum.sty" 1303001357 101837 ad70c797c40c1d5d6739cbbec86b4a6f ""
  "/usr/local/texlive/2013/texmf-dist/tex/latex/oberdiek/epstopdf-base.sty" 1303254447 12029 04d7fdf76e0464c23b5aa3a727952d7c ""
  "/usr/local/texlive/2013/texmf-dist/tex/latex/oberdiek/grfext.sty" 1335995445 7075 bd0c34fbf1ae8fd1debd2a554e41b2d5 ""
  "/usr/local/texlive/2013/texmf-dist/tex/latex/oberdiek/kvoptions.sty" 1335995445 22417 c74ff4af6a1aa2b65d1924020edbbe11 ""
  "/usr/local/texlive/2013/texmf-dist/tex/latex/pdftex-def/pdftex.def" 1306616590 55368 3c8a0d99822330f2dfabc0dfb09ce897 ""
  "/usr/local/texlive/2013/texmf-dist/tex/latex/sectsty/sectsty.sty" 1137110779 22423 d476012cd03f82f9475ad54ba6cd3267 ""
  "divider.png" 1382092410 84141 cb058dd8c8006728cd7a745a63b903c3 ""
  "writeup.aux" 1382092789 375 e89aa536fcaaf4074556d61ea14257bc ""
  "writeup.tex" 1382092789 10371 d9573760d0d14573b83cf28262e06a6c ""
  (generated)
  "writeup.log"
  "writeup.toc"
  "writeup.pdf"
  "writeup.aux"
