\relax 
\select@language{english}
\@writefile{toc}{\select@language{english}}
\@writefile{lof}{\select@language{english}}
\@writefile{lot}{\select@language{english}}
\@writefile{toc}{\contentsline {section}{\numberline {1}derive channel parameter}{1}}
\@writefile{lof}{\contentsline {figure}{\numberline {1.1}{\ignorespaces Analog divider}}{3}}
\newlabel{overflow}{{1.1}{3}}
